"Дата","Значение"
"12/31/2021","4 297.62"
"12/30/2021","4 253.66"
"12/29/2021","4 220.34"
"12/28/2021","4 205.24"
"12/27/2021","4 202.69"
"12/25/2021","4 202.69"
"12/24/2021","4 258.43"
"12/23/2021","4 246.37"
"12/22/2021","4 262.24"
"12/21/2021","4 293.32"
"12/20/2021","4 284.8"
"12/18/2021","4 284.8"
"12/17/2021","4 222.51"
"12/16/2021","4 201.2"
"12/15/2021","4 210.1"
"12/14/2021","4 211.67"
"12/13/2021","4 193.17"
"12/11/2021","4 193.17"
"12/10/2021","4 220.04"
"12/9/2021","4 249.31"
"12/8/2021","4 242.07"
"12/7/2021","4 218.93"
"12/6/2021","4 204.75"
"12/4/2021","4 204.75"
"12/3/2021","4 228.3"
"12/2/2021","4 249.61"
"12/1/2021","4 328.35"
"11/30/2021","4 327.24"
"11/29/2021","4 398.15"
"11/27/2021","4 398.15"
"11/26/2021","4 294.8"
"11/25/2021","4 282.04"
"11/24/2021","4 324.17"
"11/23/2021","4 347.74"
"11/22/2021","4 354.45"
"11/20/2021","4 354.45"
"11/19/2021","4 342.8"
"11/18/2021","4 351.2"
"11/17/2021","4 367.41"
"11/16/2021","4 330.74"
"11/15/2021","4 271.28"
"11/13/2021","4 271.28"
"11/12/2021","4 255.85"
"11/11/2021","4 147.92"
"11/10/2021","4 181.37"
"11/9/2021","4 173.18"
"11/4/2021","4 095.36"
"11/3/2021","4 117.01"
"11/2/2021","4 083.12"
"11/1/2021","4 072.7"
"10/30/2021","4 072.7"
"10/29/2021","4 077.04"
"10/28/2021","4 003.77"
"10/27/2021","4 029.35"
"10/26/2021","4 056.97"
"10/25/2021","4 083.35"
"10/23/2021","4 083.35"
"10/22/2021","4 074.76"
"10/21/2021","4 062.16"
"10/20/2021","4 059.97"
"10/19/2021","4 032.86"
"10/18/2021","4 080.1"
"10/16/2021","4 080.1"
"10/15/2021","4 147.69"
"10/14/2021","4 083.3"
"10/13/2021","4 065.28"
"10/12/2021","4 036.46"
"10/11/2021","4 067.69"
"10/9/2021","4 067.69"
"10/8/2021","4 086.92"
"10/7/2021","4 078.88"
"10/6/2021","4 101.65"
"10/5/2021","4 107.31"
"10/4/2021","4 115.97"
"10/2/2021","4 115.97"
"10/1/2021","4 043.86"
"9/30/2021","4 074.26"
"9/29/2021","4 055.46"
"9/28/2021","4 086.21"
"9/27/2021","4 119.8"
"9/25/2021","4 119.8"
"9/24/2021","4 140.97"
"9/23/2021","4 159.94"
"9/22/2021","4 157.6"
"9/21/2021","4 142.76"
"9/20/2021","4 120.07"
"9/18/2021","4 120.07"
"9/17/2021","4 148.59"
"9/16/2021","4 219.32"
"9/15/2021","4 181.7"
"9/14/2021","4 200.92"
"9/13/2021","4 210.48"
"9/11/2021","4 210.48"
"9/10/2021","4 221.14"
"9/9/2021","4 245.35"
"9/8/2021","4 260.95"
"9/7/2021","4 277.87"
"9/6/2021","4 244.41"
"9/4/2021","4 244.41"
"9/3/2021","4 251.36"
"9/2/2021","4 268.38"
"9/1/2021","4 274.39"
"8/31/2021","4 254.3"
"8/30/2021","4 271.00"
"8/28/2021","4 271.00"
"8/27/2021","4 243.41"
"8/26/2021","4 255.03"
"8/25/2021","4 286.39"
"8/24/2021","4 255.14"
"8/23/2021","4 262.78"
"8/21/2021","4 262.78"
"8/20/2021","4 263.04"
"8/19/2021","4 223.31"
"8/18/2021","4 238.06"
"8/17/2021","4 190.07"
"8/16/2021","4 151.89"
"8/14/2021","4 151.89"
"8/13/2021","4 152.17"
"8/12/2021","4 123.87"
"8/11/2021","4 092.41"
"8/10/2021","4 115.74"
"8/9/2021","4 230.86"
"8/7/2021","4 230.86"
"8/6/2021","4 260.67"
"8/5/2021","4 241.34"
"8/4/2021","4 239.95"
"8/3/2021","4 243.23"
"8/2/2021","4 299.07"
"7/31/2021","4 299.07"
"7/30/2021","4 281.39"
"7/29/2021","4 258.18"
"7/28/2021","4 266.86"
"7/27/2021","4 307.56"
"7/26/2021","4 276.19"
"7/24/2021","4 276.19"
"7/23/2021","4 258.64"
"7/22/2021","4 325.24"
"7/21/2021","4 347.53"
"7/20/2021","4 310.29"
"7/19/2021","4 344.52"
"7/17/2021","4 344.52"
"7/16/2021","4 371.55"
"7/15/2021","4 320.73"
"7/14/2021","4 304.58"
"7/13/2021","4 326.22"
"7/12/2021","4 317.67"
"7/10/2021","4 317.67"
"7/9/2021","4 376.42"
"7/8/2021","4 295.95"
"7/7/2021","4 258.37"
"7/6/2021","4 223.75"
"7/5/2021","4 221.29"
"7/3/2021","4 221.29"
"7/2/2021","4 158.37"
"7/1/2021","4 109.93"
"6/30/2021","4 117.54"
"6/29/2021","4 117.26"
"6/28/2021","4 137.67"
"6/26/2021","4 137.67"
"6/25/2021","4 139.56"
"6/24/2021","4 165.39"
"6/23/2021","4 185.05"
"6/22/2021","4 194.8"
"6/21/2021","4 161.79"
"6/19/2021","4 161.79"
"6/18/2021","4 211.68"
"6/17/2021","4 303.16"
"6/16/2021","4 304.46"
"6/14/2021","4 360.1"
"6/12/2021","4 360.1"
"6/11/2021","4 368.5"
"6/10/2021","4 381.15"
"6/9/2021","4 430.04"
"6/8/2021","4 412.9"
"6/7/2021","4 404.19"
"6/5/2021","4 404.19"
"6/4/2021","4 456.92"
"6/3/2021","4 480.03"
"6/2/2021","4 492.16"
"6/1/2021","4 477.3"
"5/31/2021","4 477.3"
"5/29/2021","4 477.3"
"5/28/2021","4 475.59"
"5/27/2021","4 498.4"
"5/26/2021","4 442.93"
"5/25/2021","4 436.75"
"5/24/2021","4 441.88"
"5/22/2021","4 441.88"
"5/21/2021","4 423.47"
"5/20/2021","4 405.96"
"5/19/2021","4 424.77"
"5/18/2021","4 389.05"
"5/17/2021","4 361.99"
"5/15/2021","4 361.99"
"5/14/2021","4 337.3"
"5/13/2021","4 364.77"
"5/12/2021","4 380.12"
"5/10/2021","4 339.29"
"5/8/2021","4 339.29"
"5/7/2021","4 299.44"
"5/6/2021","4 279.51"
"5/5/2021","4 318.79"
"5/3/2021","4 256.31"
"5/1/2021","4 256.31"
"4/30/2021","4 243.98"
"4/29/2021","4 250.44"
"4/28/2021","4 291.88"
"4/27/2021","4 278.00"
"4/26/2021","4 310.03"
"4/24/2021","4 310.03"
"4/23/2021","4 387.37"
"4/22/2021","4 398.86"
"4/21/2021","4 314.8"
"4/20/2021","4 384.2"
"4/19/2021","4 290.88"
"4/17/2021","4 290.88"
"4/16/2021","4 326.28"
"4/15/2021","4 241.89"
"4/14/2021","4 292.18"
"4/13/2021","4 339.97"
"4/12/2021","4 336.55"
"4/10/2021","4 336.55"
"4/9/2021","4 322.38"
"4/8/2021","4 340.8"
"4/7/2021","4 250.9"
"4/6/2021","4 251.11"
"4/5/2021","4 221.6"
"4/3/2021","4 221.6"
"4/2/2021","4 181.97"
"4/1/2021","4 098.42"
"3/31/2021","4 129.57"
"3/30/2021","4 202.9"
"3/29/2021","4 208.46"
"3/27/2021","4 208.46"
"3/26/2021","4 234.9"
"3/25/2021","4 245.63"
"3/24/2021","4 213.91"
"3/23/2021","4 157.94"
"3/22/2021","4 140.83"
"3/20/2021","4 140.83"
"3/19/2021","4 106.63"
"3/18/2021","4 082.32"
"3/17/2021","4 063.59"
"3/16/2021","4 068.26"
"3/15/2021","4 026.77"
"3/13/2021","4 026.77"
"3/12/2021","4 103.11"
"3/11/2021","4 074.08"
"3/10/2021","4 065.79"
"3/8/2021","4 058.47"
"3/6/2021","4 058.47"
"3/5/2021","4 056.73"
"3/4/2021","4 082.19"
"3/3/2021","4 144.35"
"3/2/2021","4 158.78"
"3/1/2021","4 224.26"
"2/27/2021","4 224.26"
"2/26/2021","4 233.41"
"2/25/2021","4 285.38"
"2/22/2021","4 218.41"
"2/21/2021","4 248.68"
"2/20/2021","4 218.41"
"2/19/2021","4 228.69"
"2/18/2021","4 242.54"
"2/17/2021","4 296.61"
"2/16/2021","4 283.63"
"2/15/2021","4 321.67"
"2/13/2021","4 321.67"
"2/12/2021","4 367.35"
"2/11/2021","4 377.11"
"2/10/2021","4 400.3"
"2/9/2021","4 325.35"
"2/8/2021","4 367.4"
"2/6/2021","4 367.4"
"2/5/2021","4 410.67"
"2/4/2021","4 487.73"
"2/3/2021","4 507.67"
"2/2/2021","4 509.9"
"2/1/2021","4 542.04"
"1/30/2021","4 542.04"
"1/29/2021","4 506.07"
"1/28/2021","4 454.61"
"1/27/2021","4 506.49"
"1/26/2021","4 465.88"
"1/25/2021","4 431.54"
"1/23/2021","4 431.54"
"1/22/2021","4 405.56"
"1/21/2021","4 373.92"
"1/20/2021","4 368.68"
"1/19/2021","4 361.69"
"1/18/2021","4 383.49"
"1/16/2021","4 383.49"
"1/15/2021","4 366.17"
"1/14/2021","4 378.94"
"1/13/2021","4 445.57"
"1/12/2021","4 426.84"
"1/1/2021","4 491.66"
"12/31/2020","4 459.48"
"12/30/2020","4 437.61"
"12/29/2020","4 438.08"
"12/28/2020","4 436.55"
"12/26/2020","4 436.55"
"12/25/2020","4 505.61"
"12/24/2020","4 529.59"
"12/23/2020","4 538.16"
"12/22/2020","4 487.62"
"12/21/2020","4 428.96"
"12/19/2020","4 428.96"
"12/18/2020","4 392.15"
"12/17/2020","4 393.73"
"12/16/2020","4 354.98"
"12/15/2020","4 267.87"
"12/14/2020","4 310.63"
"12/12/2020","4 310.63"
"12/11/2020","4 346.88"
"12/10/2020","4 383.23"
"12/9/2020","4 415.66"
"12/8/2020","4 375.28"
"12/7/2020","4 390.93"
"12/5/2020","4 390.93"
"12/4/2020","4 436.04"
"12/3/2020","4 456.05"
"12/2/2020","4 407.43"
"12/1/2020","4 341.07"
"11/30/2020","4 409.74"
"11/28/2020","4 409.74"
"11/27/2020","4 402.52"
"11/26/2020","4 388.45"
"11/25/2020","4 431.61"
"11/24/2020","4 539.73"
"11/23/2020","4 562.65"
"11/21/2020","4 562.65"
"11/20/2020","4 554.16"
"11/19/2020","4 582.44"
"11/18/2020","4 622.23"
"11/17/2020","4 680.45"
"11/16/2020","4 669.38"
"11/14/2020","4 669.38"
"11/13/2020","4 631.33"
"11/12/2020","4 596.93"
"11/11/2020","4 605.21"
"11/10/2020","4 842.82"
"11/9/2020","4 834.1"
"11/7/2020","4 834.1"
"11/6/2020","4 834.96"
"11/4/2020","4 886.56"
"11/3/2020","4 887.7"
"11/2/2020","4 784.4"
"10/31/2020","4 784.4"
"10/30/2020","4 759.17"
"10/29/2020","4 729.52"
"10/28/2020","4 667.69"
"10/27/2020","4 673.64"
"10/26/2020","4 697.13"
"10/24/2020","4 697.13"
"10/23/2020","4 750.35"
"10/22/2020","4 752.55"
"10/21/2020","4 767.05"
"10/20/2020","4 785.15"
"10/19/2020","4 783.12"
"10/17/2020","4 783.12"
"10/16/2020","4 740.64"
"10/15/2020","4 711.68"
"10/14/2020","4 772.77"
"10/13/2020","4 754.14"
"10/12/2020","4 736.09"
"10/10/2020","4 736.09"
"10/9/2020","4 737.92"
"10/8/2020","4 740.23"
"10/7/2020","4 827.56"
"10/6/2020","4 771.68"
"10/5/2020","4 786.39"
"10/3/2020","4 786.39"
"10/2/2020","4 709.54"
"10/1/2020","4 770.62"
"9/30/2020","4 822.55"
"9/29/2020","4 681.68"
"9/28/2020","4 618.65"
"9/26/2020","4 618.65"
"9/25/2020","4 592.32"
"9/24/2020","4 635.01"
"9/23/2020","4 666.73"
"9/22/2020","4 720.43"
"9/21/2020","4 715.5"
"9/19/2020","4 715.5"
"9/18/2020","4 680.61"
"9/17/2020","4 733.17"
"9/16/2020","4 746.61"
"9/15/2020","4 665.67"
"9/14/2020","4 681.88"
"9/12/2020","4 681.88"
"9/11/2020","4 722.48"
"9/10/2020","4 716.38"
"9/9/2020","4 690.71"
"9/8/2020","4 686.6"
"9/7/2020","4 683.5"
"9/5/2020","4 683.5"
"9/4/2020","4 692.8"
"9/3/2020","4 675.61"
"9/2/2020","4 703.11"
"9/1/2020","4 644.5"
"8/31/2020","4 693.4"
"8/29/2020","4 693.4"
"8/28/2020","4 689.71"
"8/27/2020","4 659.27"
"8/26/2020","4 612.67"
"8/25/2020","4 659.72"
"8/24/2020","4 604.75"
"8/22/2020","4 604.75"
"8/21/2020","4 572.94"
"8/20/2020","4 693.26"
"8/19/2020","4 733.95"
"8/18/2020","4 574.27"
"8/17/2020","4 586.18"
"8/15/2020","4 586.18"
"8/14/2020","4 569.73"
"8/13/2020","4 548.31"
"8/12/2020","4 695.8"
"8/11/2020","4 815.71"
"8/10/2020","4 880.61"
"8/8/2020","4 880.61"
"8/7/2020","4 811.98"
"8/6/2020","4 793.21"
"8/5/2020","4 653.01"
"8/4/2020","4 704.01"
"8/3/2020","4 661.68"
"8/1/2020","4 661.68"
"7/31/2020","4 604.62"
"7/30/2020","4 538.78"
"7/29/2020","4 466.49"
"7/28/2020","4 466.19"
"7/27/2020","4 359.47"
"7/25/2020","4 359.47"
"7/24/2020","4 294.6"
"7/23/2020","4 212.67"
"7/22/2020","4 159.87"
"7/21/2020","4 188.41"
"7/20/2020","4 156.86"
"7/18/2020","4 156.86"
"7/17/2020","4 132.77"
"7/16/2020","4 118.45"
"7/15/2020","4 112.12"
"7/14/2020","4 112.58"
"7/13/2020","4 135.33"
"7/11/2020","4 135.33"
"7/10/2020","4 130.29"
"7/9/2020","4 121.14"
"7/8/2020","4 119.83"
"7/7/2020","4 069.87"
"7/6/2020","4 022.46"
"7/4/2020","4 022.46"
"7/3/2020","4 017.25"
"7/2/2020","4 047.99"
"7/1/2020","4 010.17"
"6/30/2020","3 978.00"
"6/29/2020","3 916.32"
"6/27/2020","3 916.32"
"6/26/2020","3 927.51"
"6/25/2020","3 929.94"
"6/24/2020","3 887.67"
"6/23/2020","3 899.24"
"6/22/2020","3 866.43"
"6/20/2020","3 866.43"
"6/19/2020","3 878.14"
"6/18/2020","3 836.28"
"6/17/2020","3 875.98"
"6/16/2020","3 871.06"
"6/12/2020","3 848.83"
"6/11/2020","3 789.36"
"6/10/2020","3 770.05"
"6/9/2020","3 716.12"
"6/8/2020","3 772.23"
"6/6/2020","3 772.23"
"6/5/2020","3 786.42"
"6/4/2020","3 773.95"
"6/3/2020","3 859.62"
"6/2/2020","3 888.16"
"6/1/2020","3 925.38"
"5/30/2020","3 925.38"
"5/29/2020","3 939.39"
"5/28/2020","3 895.83"
"5/27/2020","3 940.32"
"5/26/2020","3 990.41"
"5/25/2020","4 003.7"
"5/23/2020","4 003.7"
"5/22/2020","3 951.23"
"5/21/2020","4 070.13"
"5/20/2020","4 038.71"
"5/19/2020","4 122.31"
"5/18/2020","4 083.17"
"5/16/2020","4 083.17"
"5/15/2020","4 079.71"
"5/14/2020","4 021.35"
"5/13/2020","4 021.69"
"5/11/2020","4 047.21"
"5/9/2020","4 047.21"
"5/8/2020","4 023.9"
"5/7/2020","4 040.41"
"5/1/2020","4 014.11"
"4/30/2020","4 041.8"
"4/29/2020","4 095.17"
"4/28/2020","4 112.99"
"4/27/2020","4 149.17"
"4/25/2020","4 149.17"
"4/24/2020","4 172.81"
"4/23/2020","4 217.37"
"4/22/2020","4 115.41"
"4/21/2020","4 044.82"
"4/20/2020","4 025.22"
"4/18/2020","4 025.22"
"4/17/2020","4 126.35"
"4/16/2020","4 057.99"
"4/15/2020","4 044.48"
"4/14/2020","3 972.83"
"4/13/2020","3 985.1"
"4/11/2020","3 985.1"
"4/10/2020","3 987.68"
"4/9/2020","4 016.12"
"4/8/2020","4 008.13"
"4/7/2020","4 020.39"
"3/30/2020","4 051.63"
"3/28/2020","4 051.63"
"3/27/2020","4 100.44"
"3/26/2020","4 054.15"
"3/25/2020","4 054.83"
"3/24/2020","3 886.3"
"3/23/2020","3 774.94"
"3/21/2020","3 774.94"
"3/20/2020","3 815.92"
"3/19/2020","3 738.58"
"3/18/2020","3 497.72"
"3/17/2020","3 585.9"
"3/16/2020","3 737.00"
"3/14/2020","3 737.00"
"3/13/2020","3 895.28"
"3/12/2020","3 820.22"
"3/11/2020","3 837.74"
"3/9/2020","3 662.03"
"3/7/2020","3 662.03"
"3/6/2020","3 505.62"
"3/5/2020","3 494.33"
"3/4/2020","3 415.91"
"3/3/2020","3 432.64"
"3/2/2020","3 502.84"
"2/29/2020","3 502.84"
"2/28/2020","3 473.34"
"2/27/2020","3 471.31"
"2/26/2020","3 456.3"
"2/24/2020","3 377.38"
"2/22/2020","3 377.38"
"2/21/2020","3 300.14"
"2/20/2020","3 295.6"
"2/19/2020","3 256.2"
"2/18/2020","3 216.56"
"2/17/2020","3 215.88"
"2/15/2020","3 215.88"
"2/14/2020","3 220.62"
"2/13/2020","3 175.81"
"2/12/2020","3 223.2"
"2/11/2020","3 227.24"
"2/10/2020","3 200.38"
"2/8/2020","3 200.38"
"2/7/2020","3 159.22"
"2/6/2020","3 152.67"
"2/5/2020","3 204.39"
"2/4/2020","3 244.1"
"2/3/2020","3 209.04"
"2/1/2020","3 209.04"
"1/31/2020","3 202.92"
"1/30/2020","3 151.82"
"1/29/2020","3 190.83"
"1/28/2020","3 173.57"
"1/27/2020","3 103.42"
"1/25/2020","3 103.42"
"1/24/2020","3 095.33"
"1/23/2020","3 097.53"
"1/22/2020","3 094.9"
"1/21/2020","3 081.32"
"1/20/2020","3 079.29"
"1/18/2020","3 079.29"
"1/17/2020","3 078.52"
"1/16/2020","3 065.17"
"1/15/2020","3 050.51"
"1/14/2020","3 037.92"
"1/13/2020","3 050.6"
"1/11/2020","3 050.6"
"1/10/2020","3 047.28"
"1/1/2020","3 031.25"
"12/31/2019","3 008.36"
"12/30/2019","3 012.68"
"12/28/2019","3 012.68"
"12/27/2019","2 960.64"
"12/26/2019","2 958.18"
"12/25/2019","2 979.8"
"12/24/2019","2 969.95"
"12/23/2019","2 963.3"
"12/21/2019","2 963.3"
"12/20/2019","2 964.03"
"12/19/2019","2 975.68"
"12/18/2019","2 972.28"
"12/17/2019","2 981.48"
"12/16/2019","2 957.63"
"12/14/2019","2 957.63"
"12/13/2019","2 997.7"
"12/12/2019","3 000.21"
"12/11/2019","2 993.49"
"12/10/2019","2 998.6"
"12/9/2019","3 021.37"
"12/7/2019","3 021.37"
"12/6/2019","3 025.36"
"12/5/2019","3 046.02"
"12/4/2019","3 032.19"
"12/3/2019","3 018.22"
"12/2/2019","3 000.48"
"11/30/2019","3 000.48"
"11/29/2019","3 003.83"
"11/28/2019","3 002.45"
"11/27/2019","3 000.45"
"11/26/2019","2 991.94"
"11/25/2019","3 013.7"
"11/23/2019","3 013.7"
"11/22/2019","3 015.06"
"11/21/2019","3 037.48"
"11/20/2019","3 003.55"
"11/19/2019","2 989.35"
"11/18/2019","3 010.41"
"11/16/2019","3 010.41"
"11/15/2019","3 029.82"
"11/14/2019","3 020.71"
"11/13/2019","2 987.00"
"11/12/2019","3 011.34"
"11/11/2019","3 005.5"
"11/9/2019","3 005.5"
"11/8/2019","3 040.86"
"11/7/2019","3 043.19"
"11/6/2019","3 059.56"
"11/4/2019","3 108.27"
"11/2/2019","3 108.27"
"11/1/2019","3 088.73"
"10/31/2019","3 060.14"
"10/30/2019","3 063.49"
"10/29/2019","3 090.57"
"10/28/2019","3 095.87"
"10/26/2019","3 095.87"
"10/25/2019","3 056.83"
"10/24/2019","3 065.02"
"10/23/2019","3 043.12"
"10/22/2019","3 056.17"
"10/21/2019","3 058.56"
"10/19/2019","3 058.56"
"10/18/2019","3 055.16"
"10/17/2019","3 067.03"
"10/16/2019","3 087.91"
"10/15/2019","3 092.08"
"10/14/2019","3 093.85"
"10/12/2019","3 093.85"
"10/11/2019","3 139.3"
"10/10/2019","3 146.52"
"10/9/2019","3 128.29"
"10/8/2019","3 130.78"
"10/7/2019","3 156.00"
"10/5/2019","3 156.00"
"10/4/2019","3 149.4"
"10/3/2019","3 122.35"
"10/2/2019","3 067.01"
"10/1/2019","3 091.6"
"9/30/2019","3 098.54"
"9/28/2019","3 098.54"
"9/27/2019","3 114.97"
"9/26/2019","3 159.17"
"9/25/2019","3 113.77"
"9/24/2019","3 123.92"
"9/23/2019","3 087.59"
"9/21/2019","3 087.59"
"9/20/2019","3 093.77"
"9/19/2019","3 111.72"
"9/18/2019","3 090.88"
"9/17/2019","3 082.34"
"9/16/2019","3 122.25"
"9/14/2019","3 122.25"
"9/13/2019","3 150.08"
"9/12/2019","3 142.18"
"9/11/2019","3 144.52"
"9/10/2019","3 183.15"
"9/9/2019","3 193.33"
"9/7/2019","3 193.33"
"9/6/2019","3 275.94"
"9/5/2019","3 290.00"
"9/4/2019","3 296.48"
"9/3/2019","3 263.01"
"9/2/2019","3 263.29"
"8/31/2019","3 263.29"
"8/30/2019","3 297.6"
"8/29/2019","3 291.97"
"8/28/2019","3 263.35"
"8/27/2019","3 189.7"
"8/26/2019","3 154.36"
"8/24/2019","3 154.36"
"8/23/2019","3 161.83"
"8/22/2019","3 194.86"
"8/21/2019","3 226.42"
"8/20/2019","3 210.86"
"8/19/2019","3 201.94"
"8/17/2019","3 201.94"
"8/16/2019","3 215.04"
"8/15/2019","3 145.23"
"8/14/2019","3 221.08"
"8/13/2019","3 159.47"
"8/12/2019","3 154.3"
"8/10/2019","3 154.3"
"8/9/2019","3 135.52"
"8/8/2019","3 113.34"
"8/7/2019","3 064.51"
"8/6/2019","3 048.33"
"8/5/2019","2 984.54"
"8/3/2019","2 984.54"
"8/2/2019","2 886.37"
"8/1/2019","2 916.76"
"7/31/2019","2 910.73"
"7/30/2019","2 897.85"
"7/29/2019","2 878.45"
"7/27/2019","2 878.45"
"7/26/2019","2 896.27"
"7/25/2019","2 892.77"
"7/24/2019","2 877.12"
"7/23/2019","2 884.19"
"7/22/2019","2 904.57"
"7/20/2019","2 904.57"
"7/19/2019","2 870.2"
"7/18/2019","2 834.84"
"7/17/2019","2 859.79"
"7/16/2019","2 860.78"
"7/15/2019","2 847.96"
"7/13/2019","2 847.96"
"7/12/2019","2 882.23"
"7/11/2019","2 862.32"
"7/10/2019","2 845.37"
"7/9/2019","2 884.91"
"7/8/2019","2 891.42"
"7/6/2019","2 891.42"
"7/5/2019","2 884.84"
"7/4/2019","2 909.22"
"7/3/2019","2 831.86"
"7/2/2019","2 817.96"
"7/1/2019","2 865.87"
"6/29/2019","2 865.87"
"6/28/2019","2 842.29"
"6/27/2019","2 840.7"
"6/26/2019","2 873.62"
"6/25/2019","2 842.64"
"6/24/2019","2 817.88"
"6/22/2019","2 817.88"
"6/21/2019","2 815.75"
"6/20/2019","2 761.3"
"6/19/2019","2 781.1"
"6/18/2019","2 756.91"
"6/17/2019","2 801.67"
"6/15/2019","2 801.67"
"6/14/2019","2 775.72"
"6/12/2019","2 743.48"
"6/11/2019","2 767.62"
"6/10/2019","2 790.11"
"6/8/2019","2 790.11"
"6/7/2019","2 803.38"
"6/6/2019","2 800.97"
"6/5/2019","2 772.92"
"6/4/2019","2 769.32"
"6/3/2019","2 724.35"
"6/1/2019","2 724.35"
"5/31/2019","2 669.91"
"5/30/2019","2 678.47"
"5/29/2019","2 664.08"
"5/28/2019","2 658.05"
"5/27/2019","2 662.03"
"5/25/2019","2 662.03"
"5/24/2019","2 645.61"
"5/23/2019","2 638.46"
"5/22/2019","2 647.59"
"5/21/2019","2 644.05"
"5/20/2019","2 671.88"
"5/18/2019","2 671.88"
"5/17/2019","2 689.1"
"5/16/2019","2 708.13"
"5/15/2019","2 724.24"
"5/14/2019","2 700.5"
"5/9/2019","2 700.6"
"5/8/2019","2 686.58"
"5/7/2019","2 685.68"
"5/1/2019","2 670.47"
"4/30/2019","2 666.72"
"4/29/2019","2 665.93"
"4/27/2019","2 665.93"
"4/26/2019","2 657.28"
"4/25/2019","2 620.2"
"4/24/2019","2 611.74"
"4/23/2019","2 616.16"
"4/22/2019","2 623.31"
"4/20/2019","2 623.31"
"4/19/2019","2 629.41"
"4/18/2019","2 623.51"
"4/17/2019","2 651.5"
"4/16/2019","2 657.89"
"4/15/2019","2 688.57"
"4/13/2019","2 688.57"
"4/12/2019","2 701.25"
"4/11/2019","2 715.75"
"4/10/2019","2 711.25"
"4/9/2019","2 725.26"
"4/8/2019","2 710.41"
"4/6/2019","2 710.41"
"4/5/2019","2 712.81"
"4/4/2019","2 706.51"
"4/3/2019","2 709.54"
"4/2/2019","2 717.15"
"4/1/2019","2 687.23"
"3/30/2019","2 687.23"
"3/29/2019","2 722.8"
"3/28/2019","2 737.6"
"3/27/2019","2 713.44"
"3/26/2019","2 735.93"
"3/25/2019","2 688.11"
"3/23/2019","2 688.11"
"3/22/2019","2 699.61"
"3/21/2019","2 692.86"
"3/20/2019","2 705.44"
"3/19/2019","2 714.04"
"3/18/2019","2 739.87"
"3/16/2019","2 739.87"
"3/15/2019","2 731.86"
"3/14/2019","2 759.07"
"3/13/2019","2 742.36"
"3/12/2019","2 753.97"
"3/8/2019","2 728.21"
"3/7/2019","2 721.38"
"3/6/2019","2 718.46"
"3/5/2019","2 723.44"
"3/4/2019","2 771.83"
"3/2/2019","2 771.83"
"3/1/2019","2 807.83"
"2/28/2019","2 804.29"
"2/27/2019","2 800.7"
"2/26/2019","2 788.69"
"2/25/2019","2 785.12"
"2/23/2019","2 785.12"
"2/22/2019","2 813.17"
"2/21/2019","2 849.42"
"2/20/2019","2 829.88"
"2/19/2019","2 819.87"
"2/18/2019","2 826.58"
"2/16/2019","2 826.58"
"2/15/2019","2 793.31"
"2/14/2019","2 768.63"
"2/13/2019","2 771.12"
"2/12/2019","2 758.22"
"2/11/2019","2 784.73"
"2/9/2019","2 784.73"
"2/8/2019","2 773.37"
"2/7/2019","2 772.87"
"2/6/2019","2 770.04"
"2/5/2019","2 764.42"
"2/4/2019","2 788.13"
"2/2/2019","2 788.13"
"2/1/2019","2 778.97"
"1/31/2019","2 790.18"
"1/30/2019","2 790.6"
"1/29/2019","2 757.73"
"1/28/2019","2 718.93"
"1/26/2019","2 718.93"
"1/25/2019","2 715.63"
"1/24/2019","2 740.2"
"1/23/2019","2 748.89"
"1/22/2019","2 728.27"
"1/21/2019","2 740.48"
"1/19/2019","2 740.48"
"1/18/2019","2 764.26"
"1/17/2019","2 769.98"
"1/16/2019","2 780.79"
"1/15/2019","2 794.74"
"1/14/2019","2 781.36"
"1/12/2019","2 781.36"
"1/11/2019","2 778.16"
"1/10/2019","2 763.32"
